Apartment List Rentonomics
…
# to get the % change in 2012 (since 2006)
print(cities %>%
        filter(Year == 2012) %>%
        select(Location, percentchangefrom2006) %>%
        arrange(percentchangefrom2006),
      row.names = FALSE)

Source: local data frame [30 x 2]
Groups: Location [30]

          Location percentchangefrom2006
             <chr>                 <dbl>
1      Detroit, MI             -9.893925
2        Miami, FL             -7.510244
3        Tampa, FL             -7.120967
4    Las Vegas, NV             -6.662166
5    Cleveland, OH             -6.596722
6  Los Angeles, CA             -5.675692
7      Chicago, IL             -4.594099
8      Orlando, FL             -4.334914
9    San Diego, CA             -4.290754
10   Riverside, CA             -4.279835
# ... with 20 more rows
…
# to get the % change in 2012 (since 2006)
print(cities %>%
        filter(Year == 2012) %>%
        select(Location, percentchangefrom2006) %>%
        arrange(desc(percentchangefrom2006)),
      row.names = FALSE)

Source: local data frame [30 x 2]
Groups: Location [30]

          Location percentchangefrom2006
             <chr>                 <dbl>
1      Phoenix, AZ              33.16972
2  San Antonio, TX              30.84529
3  Minneapolis, MN              29.86652
4    Las Vegas, NV              29.39230
5       Denver, CO              28.04002
6       Dallas, TX              24.64989
7   Washington, DC              24.07888
8        Tampa, FL              23.60709
9      Atlanta, GA              23.07461
10   Riverside, CA              21.60102
# ... with 20 more rows
…
# to get the % change in 2012 (since 2006)
print(cities %>%
        filter(Year == 2012) %>%
        select(Location, Category, percentchangefrom2006) %>%
        arrange(desc(percentchangefrom2006)),
      row.names = FALSE)

Source: local data frame [480 x 3]
Groups: Location, Category [480]

           Location                                             Category
              <chr>                                                <chr>
1  Philadelphia, PA                Renter: Two or More Races Householder
2    Cincinnati, OH Renter: American Indian and Alaska Native Households
3       Atlanta, GA Renter: American Indian and Alaska Native Households
4       Chicago, IL Renter: American Indian and Alaska Native Households
5     Riverside, CA                                        Renter: 60-64
6     Las Vegas, NV                Renter: Two or More Races Householder
7     Baltimore, MD Renter: American Indian and Alaska Native Households
8       Atlanta, GA                Renter: Two or More Races Householder
9       Phoenix, AZ                                        Renter: 60-64
10      Houston, TX                Renter: Two or More Races Householder
# ... with 470 more rows, and 1 more variables:
#   percentchangefrom2006 <dbl>
…
# to get the % change in 2012 (since 2006)
print(cities_age %>%
        filter(Year == 2012) %>%
        select(age_group, Location, percentchangefrom2006) %>%
        arrange(desc(percentchangefrom2006)),
      row.names = FALSE)

Source: local data frame [270 x 3]
Groups: age_group, Location [270]

   age_group        Location percentchangefrom2006
       <chr>           <chr>                 <dbl>
1      60-64   Riverside, CA             104.92189
2      60-64     Phoenix, AZ              98.49517
3      60-64 Minneapolis, MN              87.02674
4      60-64  Cincinnati, OH              83.23784
5      60-64  Sacramento, CA              81.26646
6      65-74     Phoenix, AZ              80.57467
7      60-64      Denver, CO              80.29813
8      60-64   St. Louis, MO              78.15249
9      60-64   San Diego, CA              77.78039
10     60-64     Atlanta, GA              74.95454
# ... with 260 more rows
…
# to get the % change in 2012 (since 2006)
print(cities_eth %>%
        filter(Year == 2012) %>%
        select(race, Location, percentchangefrom2006) %>%
        arrange(desc(percentchangefrom2006)),
      row.names = FALSE)

Source: local data frame [210 x 3]
Groups: race, Location [210]

                                race         Location
                               <chr>            <chr>
1                  Two or More Races Philadelphia, PA
2  American Indian and Alaska Native   Cincinnati, OH
3  American Indian and Alaska Native      Atlanta, GA
4  American Indian and Alaska Native      Chicago, IL
5                  Two or More Races    Las Vegas, NV
6  American Indian and Alaska Native    Baltimore, MD
7                  Two or More Races      Atlanta, GA
8                  Two or More Races      Houston, TX
9                  Two or More Races       Dallas, TX
10                 Two or More Races    San Diego, CA
# ... with 200 more rows, and 1 more variables:
#   percentchangefrom2006 <dbl>
…
# to get the % change in 2012 (since 2006)
print(cities_age %>%
        filter(Year == 2012) %>%
        select(age_group, Location, percentchangefrom2006) %>%
        arrange(desc(percentchangefrom2006)),
      row.names = FALSE)

Source: local data frame [30 x 3]
Groups: age_group, Location [30]

   age_group        Location percentchangefrom2006
       <chr>           <chr>                 <dbl>
1      15-24      Dallas, TX            14.6071002
2      15-24    Portland, OR             7.8395781
3      15-24     Detroit, MI             6.1821171
4      15-24 Minneapolis, MN             0.8200425
5      15-24     Houston, TX             0.2071055
6      15-24     Phoenix, AZ            -0.1406946
7      15-24   Cleveland, OH            -1.1108451
8      15-24     Atlanta, GA            -1.9664462
9      15-24    New York, NY            -2.3091514
10     15-24 San Antonio, TX            -2.6151726
# ... with 20 more rows
…
# to get the % change in 2012 (since 2006)
print(cities %>%
        filter(Year == 2012) %>%
        select(Location, percentchangefrom2006) %>%
        arrange(desc(percentchangefrom2006)),
      row.names = FALSE)

Source: local data frame [30 x 2]
Groups: Location [30]

          Location percentchangefrom2006
             <chr>                 <dbl>
1      Houston, TX            8.92308941
2  San Antonio, TX            8.11249153
3       Dallas, TX            4.84283648
4      Seattle, WA           -0.09238952
5       Boston, MA           -0.53843369
6   Washington, DC           -0.55113739
7     Portland, OR           -0.83242750
8    Baltimore, MD           -1.15020347
9       Denver, CO           -1.37358131
10  Cincinnati, OH           -1.71711433
# ... with 20 more rows
…
# to get the % change in 2012 (since 2006)
print(cities_age %>%
        filter(Year == 2012) %>%
        select(age_group, Location, percentchangefrom2006) %>%
        arrange(desc(percentchangefrom2006)),
      row.names = FALSE)

Source: local data frame [270 x 3]
Groups: age_group, Location [270]

   age_group        Location percentchangefrom2006
       <chr>           <chr>                 <dbl>
1        85-   Las Vegas, NV             118.70772
2        85-     Houston, TX              60.79857
3        85-  Sacramento, CA              50.08429
4        85-      Dallas, TX              48.27985
5        85- Minneapolis, MN              47.55994
6      65-74     Atlanta, GA              46.74609
7        85-     Seattle, WA              46.27798
8      60-64  Sacramento, CA              43.83273
9        85- Kansas City, MO              42.47830
10       85-      Boston, MA              42.02016
# ... with 260 more rows
…
